<?xml version="1.0" encoding="UTF-8" standalone="no"?>
<!-- Created with Inkscape (http://www.inkscape.org/) -->

<svg
   xmlns:dc="http://purl.org/dc/elements/1.1/"
   xmlns:cc="http://creativecommons.org/ns#"
   xmlns:rdf="http://www.w3.org/1999/02/22-rdf-syntax-ns#"
   xmlns:svg="http://www.w3.org/2000/svg"
   xmlns="http://www.w3.org/2000/svg"
   xmlns:xlink="http://www.w3.org/1999/xlink"
   xmlns:sodipodi="http://sodipodi.sourceforge.net/DTD/sodipodi-0.dtd"
   xmlns:inkscape="http://www.inkscape.org/namespaces/inkscape"
   width="3840mm"
   height="2160mm"
   viewBox="0 0 3840 2160"
   version="1.1"
   id="svg8"
   sodipodi:docname="LightSelected.svg"
   inkscape:version="0.92.4 5da689c313, 2019-01-14">
  <defs
     id="defs2">
    <path
       inkscape:connector-curvature="0"
       id="SVGID_1_"
       d="M 101.17,41.45 C 101.14,20.18 83.88,2.97 62.61,3 41.35,3.03 24.13,20.29 24.16,41.55 c 0.01,9.27 4.57,17.43 9.54,25.06 5.22,8.01 8.77,15.72 12.71,24.31 2.31,5.05 8.61,7.02 14.11,7.4 5.38,0.36 12.21,-0.25 16.71,-3.93 7.05,-5.76 7.21,-16.78 11.84,-24.13 5.67,-8.98 12.11,-17.68 12.1,-28.81 z" />
    <path
       inkscape:connector-curvature="0"
       id="path960"
       d="M 101.17,41.45 C 101.14,20.18 83.88,2.97 62.61,3 41.35,3.03 24.13,20.29 24.16,41.55 c 0.01,9.27 4.57,17.43 9.54,25.06 5.22,8.01 8.77,15.72 12.71,24.31 2.31,5.05 8.61,7.02 14.11,7.4 5.38,0.36 12.21,-0.25 16.71,-3.93 7.05,-5.76 7.21,-16.78 11.84,-24.13 5.67,-8.98 12.11,-17.68 12.1,-28.81 z" />
    <path
       inkscape:connector-curvature="0"
       id="SVGID_1_-2"
       d="M 101.17,41.45 C 101.14,20.18 83.88,2.97 62.61,3 41.35,3.03 24.13,20.29 24.16,41.55 c 0.01,9.27 4.57,17.43 9.54,25.06 5.22,8.01 8.77,15.72 12.71,24.31 2.31,5.05 8.61,7.02 14.11,7.4 5.38,0.36 12.21,-0.25 16.71,-3.93 7.05,-5.76 7.21,-16.78 11.84,-24.13 5.67,-8.98 12.11,-17.68 12.1,-28.81 z" />
    <path
       inkscape:connector-curvature="0"
       id="path960-2"
       d="M 101.17,41.45 C 101.14,20.18 83.88,2.97 62.61,3 41.35,3.03 24.13,20.29 24.16,41.55 c 0.01,9.27 4.57,17.43 9.54,25.06 5.22,8.01 8.77,15.72 12.71,24.31 2.31,5.05 8.61,7.02 14.11,7.4 5.38,0.36 12.21,-0.25 16.71,-3.93 7.05,-5.76 7.21,-16.78 11.84,-24.13 5.67,-8.98 12.11,-17.68 12.1,-28.81 z" />
  </defs>
  <sodipodi:namedview
     id="base"
     pagecolor="#ffffff"
     bordercolor="#666666"
     borderopacity="1.0"
     inkscape:pageopacity="0.0"
     inkscape:pageshadow="2"
     inkscape:zoom="0.04"
     inkscape:cx="6780.1493"
     inkscape:cy="11215.615"
     inkscape:document-units="mm"
     inkscape:current-layer="layer3"
     showgrid="false"
     inkscape:window-width="2560"
     inkscape:window-height="1384"
     inkscape:window-x="0"
     inkscape:window-y="28"
     inkscape:window-maximized="1" />
  <metadata
     id="metadata5">
    <rdf:RDF>
      <cc:Work
         rdf:about="">
        <dc:format>image/svg+xml</dc:format>
        <dc:type
           rdf:resource="http://purl.org/dc/dcmitype/StillImage" />
        <dc:title />
      </cc:Work>
    </rdf:RDF>
  </metadata>
  <g
     inkscape:label="Layer 1"
     inkscape:groupmode="layer"
     id="layer1"
     transform="translate(-13.607142,-49.047619)">
    <g
       id="g965"
       transform="translate(1549.0526,497.35741)">
      <g
         style="display:inline"
         transform="translate(-259.87582,-18.207981)"
         inkscape:label="Layer 3"
         id="layer3">
        <g
           transform="matrix(3.645754,0,0,3.645754,799.96909,-361.03893)"
           id="g968"
           style="fill:#1a0847;fill-opacity:1">
          <g
             id="g947"
             style="fill:#ffdd55;fill-opacity:1">
            <defs
               id="defs940">
              <path
                 inkscape:connector-curvature="0"
                 id="path914"
                 d="M 101.17,41.45 C 101.14,20.18 83.88,2.97 62.61,3 41.35,3.03 24.13,20.29 24.16,41.55 c 0.01,9.27 4.57,17.43 9.54,25.06 5.22,8.01 8.77,15.72 12.71,24.31 2.31,5.05 8.61,7.02 14.11,7.4 5.38,0.36 12.21,-0.25 16.71,-3.93 7.05,-5.76 7.21,-16.78 11.84,-24.13 5.67,-8.98 12.11,-17.68 12.1,-28.81 z" />
            </defs>
            <use
               height="100%"
               width="100%"
               y="0"
               x="0"
               style="overflow:visible;fill:#ffdd55;fill-opacity:1"
               xlink:href="#SVGID_1_"
               id="use942" />
            <clipPath
               id="SVGID_2_">
              <use
                 height="100%"
                 width="100%"
                 y="0"
                 x="0"
                 style="overflow:visible"
                 xlink:href="#SVGID_1_"
                 id="use944" />
            </clipPath>
          </g>
          <path
             inkscape:connector-curvature="0"
             d="m 73.12,119.96 c 0.59,-0.43 1.08,-0.93 1.42,-1.65 0.41,-0.9 0.27,-1.75 0.17,-2.7 -0.08,-0.81 0,-1.16 0.55,-1.72 0.62,-0.63 1.25,-1.2 1.36,-2.13 0.08,-0.69 -0.07,-1.35 -0.2,-2.01 -0.07,-0.24 -0.11,-0.49 -0.11,-0.74 0.14,-0.53 0.81,-0.9 1.18,-1.26 0.96,-0.93 1.85,-2.22 2.13,-3.53 0.18,-0.82 0.14,-2 -0.38,-2.69 -0.77,-1.02 -1.8,-0.61 -2.78,-0.17 -0.32,0.14 -0.6,0.32 -0.92,0.47 -6.08,2.95 -13.24,2.95 -19.69,1.32 -1.64,-0.41 -3.28,-0.91 -4.81,-1.63 -1.21,-0.56 -2.92,-1.19 -3.75,0.31 -0.7,1.26 -0.34,2.94 0.17,4.21 0.3,0.74 0.95,1.38 1.49,1.95 0.52,0.55 0.75,0.83 0.6,1.53 -0.14,0.64 -0.04,1.18 0.02,1.83 0.09,0.88 0.21,1.72 0.78,2.43 0.55,0.69 1.37,1.22 1.86,1.95 0.43,0.63 0.42,1.48 0.67,2.19 0.42,1.16 1.43,2.39 2.45,3.09 1.16,0.79 2.72,0.74 3.73,1.78 1.33,1.38 3.23,2.38 5.19,2.26 2.4,-0.14 3.69,-2 5.52,-3.26 0.71,-0.49 1.6,-0.7 2.35,-1.16 0.34,-0.23 0.68,-0.44 1,-0.67 z"
             style="fill:#78a3ad;fill-opacity:1"
             id="path949" />
        </g>
        <circle
           cy="-217.71703"
           cx="944.40826"
           id="path817-5-6"
           style="display:inline;fill:#ffffff;fill-opacity:1;stroke-width:1.3596046"
           r="42.574268" />
        <circle
           cy="-217.71703"
           cx="1114.7053"
           id="path817-3-3-0"
           style="display:inline;fill:#ffffff;fill-opacity:1;stroke-width:1.3596046"
           r="42.574268" />
        <circle
           cy="-217.71703"
           cx="944.40826"
           id="path840-5-6"
           style="display:inline;fill:#1a1a1a;fill-opacity:1;stroke-width:2.20755434"
           r="10.643567" />
        <circle
           cy="-217.71703"
           cx="1114.7053"
           id="path840-6-6-2"
           style="display:inline;fill:#1a1a1a;fill-opacity:1;stroke-width:2.20755434"
           r="10.643567" />
      </g>
      <g
         transform="translate(-259.39164,-18.20798)"
         style="display:inline"
         inkscape:label="Layer 4"
         id="layer4" />
    </g>
  </g>
</svg>
