<?xml version="1.0" encoding="UTF-8" standalone="no"?>
<!-- Created with Inkscape (http://www.inkscape.org/) -->

<svg
   xmlns:dc="http://purl.org/dc/elements/1.1/"
   xmlns:cc="http://creativecommons.org/ns#"
   xmlns:rdf="http://www.w3.org/1999/02/22-rdf-syntax-ns#"
   xmlns:svg="http://www.w3.org/2000/svg"
   xmlns="http://www.w3.org/2000/svg"
   xmlns:sodipodi="http://sodipodi.sourceforge.net/DTD/sodipodi-0.dtd"
   xmlns:inkscape="http://www.inkscape.org/namespaces/inkscape"
   width="129.48203mm"
   height="131.23334mm"
   viewBox="0 0 129.48203 131.23334"
   version="1.1"
   id="svg8"
   inkscape:version="0.92.4 5da689c313, 2019-01-14"
   sodipodi:docname="brain.svg">
  <defs
     id="defs2" />
  <sodipodi:namedview
     id="base"
     pagecolor="#ffffff"
     bordercolor="#666666"
     borderopacity="1.0"
     inkscape:pageopacity="0.0"
     inkscape:pageshadow="2"
     inkscape:zoom="0.35"
     inkscape:cx="284.97629"
     inkscape:cy="311.31488"
     inkscape:document-units="mm"
     inkscape:current-layer="g861"
     showgrid="false"
     inkscape:window-width="2560"
     inkscape:window-height="1384"
     inkscape:window-x="0"
     inkscape:window-y="28"
     inkscape:window-maximized="1" />
  <metadata
     id="metadata5">
    <rdf:RDF>
      <cc:Work
         rdf:about="">
        <dc:format>image/svg+xml</dc:format>
        <dc:type
           rdf:resource="http://purl.org/dc/dcmitype/StillImage" />
        <dc:title></dc:title>
      </cc:Work>
    </rdf:RDF>
  </metadata>
  <g
     inkscape:label="Layer 1"
     inkscape:groupmode="layer"
     id="layer1"
     transform="translate(-17.204189,-99.968731)">
    <g
       id="g861"
       transform="translate(11.486193,32.144141)">
      <g
         transform="translate(-1.2e-6,57.67999)"
         style="display:inline"
         inkscape:label="Sub"
         id="layer5">
        <path
           inkscape:connector-curvature="0"
           transform="scale(0.26458333)"
           id="path903"
           d="M 246.5,38.341797 A 45.999997,45.999997 0 0 1 277.43555,50.369141 45.999997,45.999997 0 0 1 295,46.841797 45.999997,45.999997 0 0 1 328.08008,60.886719 45.999997,45.999997 0 0 1 344.5,57.841797 45.999997,45.999997 0 0 1 385.65625,83.332031 45.999997,45.999997 0 0 1 392,82.841797 45.999997,45.999997 0 0 1 433.83398,109.84961 45.999997,45.999997 0 0 1 465,153.3418 a 45.999997,45.999997 0 0 1 -46,46 A 45.999997,45.999997 0 0 1 377.93945,174.06445 128.5,45.999997 0 0 1 260,201.8418 128.5,45.999997 0 0 1 143.46484,175.09375 45.999997,45.999997 0 0 1 101.5,202.3418 a 45.999997,45.999997 0 0 1 -46,-46 45.999997,45.999997 0 0 1 46,-46 45.999997,45.999997 0 0 1 1.98242,0.0996 A 45.999997,45.999997 0 0 1 148.5,73.841797 45.999997,45.999997 0 0 1 155.10547,74.375 45.999997,45.999997 0 0 1 196,49.341797 45.999997,45.999997 0 0 1 213.18164,52.705078 45.999997,45.999997 0 0 1 246.5,38.341797 Z"
           style="display:inline;fill:#e79fe7;fill-opacity:1;stroke-width:1.41538453" />
        <path
           inkscape:connector-curvature="0"
           id="rect1584"
           transform="scale(0.26458333)"
           d="m 232.02734,40.720703 a 45.999999,45.999999 0 0 0 -12.85742,6.728516 L 186.71484,119.6582 v 0.0469 l -8.96093,19.93945 -0.002,23.82813 c 0,0 0.01,0.008 0.0137,0.0156 -0.005,0.006 -0.0137,0.006 -0.0137,0.0137 v 27.61719 a 128.5,45.999999 0 0 0 8.96289,2.44531 v -30.0625 c 0,-0.007 -0.008,-0.007 -0.0117,-0.0117 0.005,-0.005 0.0137,1.9e-4 0.0137,-0.0176 v -21.93555 z m 63.46094,6.144531 33.60742,74.771486 v 40.5039 a 20.390963,20.390963 0 0 0 -16.16992,19.94141 20.390963,20.390963 0 0 0 6.15234,14.56641 128.5,45.999999 0 0 0 14.37305,-3.14453 11.427911,11.427911 0 0 1 -0.13476,0.006 11.427911,11.427911 0 0 1 -11.42774,-11.42774 11.427911,11.427911 0 0 1 11.42774,-11.42773 11.427911,11.427911 0 0 1 11.42773,11.42773 11.427911,11.427911 0 0 1 -6.14453,10.12305 128.5,45.999999 0 0 0 14.35156,-4.70508 20.390963,20.390963 0 0 0 0.75586,-5.41797 20.390963,20.390963 0 0 0 -15.64844,-19.80859 v -42.5293 c 0,-0.0162 -0.013,-0.0293 -0.0293,-0.0293 h -0.006 l 0.008,-0.004 c 0.015,0 0.0236,-0.0371 0.0156,-0.0371 L 305.93164,48.21875 a 45.999999,45.999999 0 0 0 -10.44336,-1.353516 z m -119.76172,7.269532 a 45.999999,45.999999 0 0 0 -15.27539,12.109375 l -24,53.400389 v 0.27344 a 20.390963,20.390963 0 0 0 -3.19726,-0.27735 20.390963,20.390963 0 0 0 -20.39063,20.39063 20.390963,20.390963 0 0 0 20.39063,20.39258 20.390963,20.390963 0 0 0 20.39062,-20.39258 20.390963,20.390963 0 0 0 -8.94141,-16.86719 z m 174.58985,4.123046 28.48242,63.378908 v 53.9414 a 45.999999,45.999999 0 0 0 8.96484,11.44532 v -67.2793 c 0,-0.0162 -0.0161,-0.0293 -0.0312,-0.0293 h -0.004 l 0.008,-0.004 c 0.0161,0 0.0232,-0.0371 0.0156,-0.0371 L 361.4375,61.123047 a 45.999999,45.999999 0 0 0 -11.12109,-2.865235 z m -88.63672,1.613282 a 20.390963,20.390963 0 0 0 -20.39063,20.390625 20.390963,20.390963 0 0 0 16.16992,19.941401 v 101.58985 a 128.5,45.999999 0 0 0 2.53907,0.0469 128.5,45.999999 0 0 0 6.42383,-0.0723 V 100.07031 A 20.390963,20.390963 0 0 0 282.07031,80.261719 20.390963,20.390963 0 0 0 261.67969,59.871094 Z m 0,8.96289 A 11.427911,11.427911 0 0 1 273.10742,80.261719 11.427911,11.427911 0 0 1 261.67969,91.689453 11.427911,11.427911 0 0 1 250.25195,80.261719 11.427911,11.427911 0 0 1 261.67969,68.833984 Z M 133.25391,128.60352 a 11.427911,11.427911 0 0 1 11.42773,11.42968 11.427911,11.427911 0 0 1 -11.42773,11.42774 11.427911,11.427911 0 0 1 -11.42774,-11.42774 11.427911,11.427911 0 0 1 0,-0.002 11.427911,11.427911 0 0 1 11.42774,-11.42773 z"
           style="fill:#06063c;fill-opacity:1;stroke-width:0.02090064" />
      </g>
      <g
         style="display:inline"
         transform="translate(-0.4841777,57.679989)"
         inkscape:label="Layer 3"
         id="layer3">
        <path
           transform="matrix(0.26458333,0,0,0.26458333,0.4841765,1.1181641e-6)"
           inkscape:connector-curvature="0"
           id="rect815"
           d="m 29.800781,169.3418 c -5.262688,11.78727 -8.189453,24.86406 -8.189453,38.65039 v 188.97656 c 0,52.34646 42.141827,94.48829 94.488282,94.48828 h 300.4043 c 52.34645,0 94.48828,-42.14182 94.48828,-94.48828 V 207.99219 c 0,-13.78699 -2.92556,-26.8634 -8.18946,-38.65039 z"
           style="display:inline;fill:#b3b3b3;fill-opacity:1;stroke-width:1.13790214" />
        <circle
           transform="translate(6.2022454,-166.96852)"
           r="10"
           cy="241.55209"
           cx="44.552082"
           id="path817"
           style="display:inline;fill:#ffffff;fill-opacity:1;stroke-width:0.3193489" />
        <circle
           transform="translate(6.2022454,-166.96852)"
           r="10"
           cy="241.55209"
           cx="84.552086"
           id="path817-3"
           style="display:inline;fill:#ffffff;fill-opacity:1;stroke-width:0.3193489" />
        <circle
           transform="translate(6.2022454,-166.96852)"
           r="2.5"
           cy="241.55209"
           cx="44.552082"
           id="path840"
           style="display:inline;fill:#1a1a1a;fill-opacity:1;stroke-width:0.51851845" />
        <circle
           transform="translate(6.2022454,-166.96852)"
           r="2.5"
           cy="241.55209"
           cx="84.552086"
           id="path840-6"
           style="display:inline;fill:#1a1a1a;fill-opacity:1;stroke-width:0.51851845" />
        <path
           transform="translate(6.2022454,-166.96852)"
           inkscape:connector-curvature="0"
           id="path2812-0"
           d="m 64.552082,279.60521 c -2.610095,2.30865 -4.362398,4.86603 -16.038244,4.58562 -9.870033,-0.23702 -13.619779,-6.35404 -13.915817,-10.45284 -0.304578,-4.21708 0.92798,-6.37332 3.026882,-7.7616 2.085019,-1.37911 5.034346,-1.45192 6.34311,-0.55577 0.97395,0.66688 2.503185,2.05293 1.439316,2.70514 -1.17781,0.72207 -2.874374,-1.11873 -4.340881,0.34008 -2.898471,2.88325 0.162532,6.01491 2.905023,5.93238 3.470351,-0.10443 4.598766,-3.82253 10.667572,-7.47108 5.570121,-3.34874 9.929456,2.07357 9.913039,2.01952 -0.01641,0.0541 4.342919,-5.36826 9.91304,-2.01952 6.068806,3.64855 7.197222,7.36665 10.667573,7.47108 2.742491,0.0825 5.803493,-3.04913 2.905023,-5.93238 -1.466507,-1.45881 -3.163071,0.38199 -4.340881,-0.34008 -1.063868,-0.65221 0.465366,-2.03826 1.439316,-2.70514 1.308764,-0.89615 4.25809,-0.82334 6.343111,0.55577 2.0989,1.38828 3.331461,3.54452 3.026881,7.7616 -0.296038,4.0988 -4.045783,10.21582 -13.915817,10.45284 -11.675847,0.28041 -13.42815,-2.27697 -16.038246,-4.58562 z"
           style="display:inline;fill:#1a1a1a;stroke:none;stroke-width:0.16666664" />
        <path
           transform="translate(6.2022454,-166.96852)"
           inkscape:connector-curvature="0"
           id="rect1022"
           d="m 68.195268,219.83905 h 32.102662 c 0.11171,0 0.20164,0.0899 0.20164,0.20165 v 10.59581 c 0,0.11171 -0.0899,0.20165 -0.20164,0.20165 H 68.195268 c -0.111712,0 -0.201646,-0.0899 -0.201646,-0.20165 V 220.0407 c 0,-0.11172 0.08993,-0.20165 0.201646,-0.20165 z"
           style="display:inline;fill:#b3b3b3;fill-opacity:1;stroke-width:0.29442525" />
        <rect
           transform="translate(6.2022454,-166.96852)"
           ry="7.1815476"
           y="245.97322"
           x="27.308781"
           height="14.363095"
           width="73.421875"
           id="rect857"
           style="display:inline;fill:#b3b3b3;fill-opacity:1;stroke-width:0.72940588" />
      </g>
      <g
         style="display:inline"
         transform="translate(5.7180676,87.711467)"
         inkscape:label="Layer 2"
         id="layer2">
        <path
           inkscape:connector-curvature="0"
           id="rect1022-6"
           d="m 68.462727,245.97322 h 32.029903 c 0.13186,0 0.23802,0.10616 0.23802,0.23803 v 12.50743 c 0,0.13186 -0.10616,0.23802 -0.23802,0.23802 H 68.462727 c -0.131867,0 -0.238026,-0.10616 -0.238026,-0.23802 v -12.50743 c 0,-0.13187 0.106159,-0.23803 0.238026,-0.23803 z"
           style="fill:#b3b3b3;fill-opacity:1;stroke-width:0.31988356"
           transform="translate(-1.0416668e-8,-197)" />
        <path
           inkscape:connector-curvature="0"
           d="m 217.00781,457.91211 a 47.053463,38.214867 0 0 0 -9.0957,0.75781 76.430464,61.143787 0 0 0 -16.24609,24.26563 76.430464,61.143787 0 0 0 9.92187,49.25195 47.053463,38.214867 0 0 0 15.41992,2.1543 47.053463,38.214867 0 0 0 45.4375,-28.35352 20.414477,10.363803 0 0 0 8.33399,0.91211 20.414477,10.363803 0 0 0 6.34179,-0.52734 47.052881,38.214867 0 0 0 45.28125,27.96875 47.052881,38.214867 0 0 0 15.44336,-2.16211 76.42981,61.143787 0 0 0 12.50196,-33.41797 76.42981,61.143787 0 0 0 -18.88282,-40.12305 47.052881,38.214867 0 0 0 -9.0625,-0.72656 47.052881,38.214867 0 0 0 -45.54296,28.73242 20.414477,10.363803 0 0 0 -6.08008,-0.47265 20.414477,10.363803 0 0 0 -8.125,0.86914 47.053463,38.214867 0 0 0 -45.64649,-29.12891 z"
           style="fill:#ff8800;fill-opacity:1;stroke-width:0.50171816"
           transform="matrix(0.26458333,0,0,0.26458333,-6.2022453,-30.031479)"
           id="path1724" />
      </g>
    </g>
  </g>
</svg>
