<?xml version="1.0" encoding="UTF-8" standalone="no"?>
<!-- Created with Inkscape (http://www.inkscape.org/) -->

<svg
   xmlns:dc="http://purl.org/dc/elements/1.1/"
   xmlns:cc="http://creativecommons.org/ns#"
   xmlns:rdf="http://www.w3.org/1999/02/22-rdf-syntax-ns#"
   xmlns:svg="http://www.w3.org/2000/svg"
   xmlns="http://www.w3.org/2000/svg"
   xmlns:sodipodi="http://sodipodi.sourceforge.net/DTD/sodipodi-0.dtd"
   xmlns:inkscape="http://www.inkscape.org/namespaces/inkscape"
   width="80.132324mm"
   height="105.47375mm"
   viewBox="0 0 80.132326 105.47376"
   version="1.1"
   id="svg8"
   inkscape:export-filename="/home/ace/bitmap.png"
   inkscape:export-xdpi="367.8891"
   inkscape:export-ydpi="367.8891"
   sodipodi:docname="minionHeater.svg"
   inkscape:version="0.92.4 5da689c313, 2019-01-14">
  <defs
     id="defs2">
    <path
       d="M 101.17,41.45 C 101.14,20.18 83.88,2.97 62.61,3 41.35,3.03 24.13,20.29 24.16,41.55 c 0.01,9.27 4.57,17.43 9.54,25.06 5.22,8.01 8.77,15.72 12.71,24.31 2.31,5.05 8.61,7.02 14.11,7.4 5.38,0.36 12.21,-0.25 16.71,-3.93 7.05,-5.76 7.21,-16.78 11.84,-24.13 5.67,-8.98 12.11,-17.68 12.1,-28.81 z"
       id="SVGID_1_"
       inkscape:connector-curvature="0" />
  </defs>
  <sodipodi:namedview
     id="base"
     pagecolor="#ffffff"
     bordercolor="#666666"
     borderopacity="1.0"
     inkscape:pageopacity="0.0"
     inkscape:pageshadow="2"
     inkscape:zoom="0.5"
     inkscape:cx="160.34575"
     inkscape:cy="30.428691"
     inkscape:document-units="mm"
     inkscape:current-layer="layer3"
     showgrid="false"
     showguides="false"
     inkscape:window-width="1280"
     inkscape:window-height="1384"
     inkscape:window-x="1280"
     inkscape:window-y="28"
     inkscape:window-maximized="0" />
  <metadata
     id="metadata5">
    <rdf:RDF>
      <cc:Work
         rdf:about="">
        <dc:format>image/svg+xml</dc:format>
        <dc:type
           rdf:resource="http://purl.org/dc/dcmitype/StillImage" />
        <dc:title />
      </cc:Work>
    </rdf:RDF>
  </metadata>
  <g
     inkscape:groupmode="layer"
     id="layer5"
     inkscape:label="Sub"
     style="display:inline"
     transform="translate(-174.06504,-19.545002)">
    <g
       id="g918"
       transform="matrix(0.00877303,0,0,-0.00877303,170.65782,128.43585)"
       style="display:inline;fill:#ff7f2a;stroke:none">
      <path
         id="path916"
         d="M 4810,12263 C 4552,11999 4071,11463 3689,11015 1777,8774 630,6860 421,5563 365,5214 382,4697 465,4245 675,3100 1279,2082 2170,1369 2870,808 3711,474 4605,400 c 167,-14 533,-14 700,0 699,58 1370,276 1963,638 1137,694 1930,1862 2177,3205 72,392 97,886 61,1187 -157,1304 -1316,3275 -3285,5585 -382,448 -866,987 -1121,1248 l -145,149 z"
         inkscape:connector-curvature="0"
         style="fill:#ff7f2a" />
    </g>
    <circle
       style="display:inline;opacity:1;fill:#ffd42a;stroke-width:0.24302229"
       id="path930"
       cx="213.85199"
       cy="99.970009"
       r="25.089037" />
  </g>
  <g
     inkscape:groupmode="layer"
     id="layer3"
     inkscape:label="Layer 3"
     transform="translate(-174.54922,-19.545003)"
     style="display:inline">
    <circle
       style="display:inline;fill:#ffffff;fill-opacity:1;stroke-width:0.3193489"
       id="path817-5"
       cx="194.2662"
       cy="62.240501"
       r="10" />
    <circle
       style="display:inline;fill:#ffffff;fill-opacity:1;stroke-width:0.3193489"
       id="path817-3-3"
       cx="234.2662"
       cy="62.240501"
       r="10" />
    <circle
       style="display:inline;fill:#1a1a1a;fill-opacity:1;stroke-width:0.51851845"
       id="path840-5"
       cx="194.2662"
       cy="62.240501"
       r="2.5" />
    <circle
       style="display:inline;fill:#1a1a1a;fill-opacity:1;stroke-width:0.51851845"
       id="path840-6-6"
       cx="234.2662"
       cy="62.240501"
       r="2.5" />
  </g>
  <g
     inkscape:label="Layer 1"
     inkscape:groupmode="layer"
     id="layer1"
     transform="translate(-168.34697,-186.51352)"
     style="display:inline">
    <path
       style="fill:#1a1a1a;fill-opacity:1;stroke-width:0.12626907"
       d=""
       id="path1581"
       inkscape:connector-curvature="0"
       transform="matrix(0.26458333,0,0,0.26458333,0,197)" />
    <circle
       style="fill:#ff5555;fill-opacity:1;stroke-width:0.25157231"
       id="path1743"
       cx="50"
       cy="321.22299"
       r="0" />
  </g>
  <g
     inkscape:groupmode="layer"
     id="layer4"
     inkscape:label="Layer 4"
     style="display:inline"
     transform="translate(-174.06504,-19.545002)" />
  <g
     inkscape:groupmode="layer"
     id="layer2"
     inkscape:label="Layer 2"
     transform="translate(-168.34697,10.486475)"
     style="display:inline" />
</svg>
